{
  "lists": [
    {
      "id": "1",
      "name": "Chores to do at home",
      "listElements": [
        { "id": "1", "title": "Take out the trash.", "body": "Get the trash" },
        { "id": "2", "title": "Wash the dishes.", "body": "Get the dishes" },
        {
          "id": "3",
          "title": "Do the laundry.",
          "body": "Get the car and go to laundry"
        },
        { "id": "4", "title": "\"do there\"", "body": "\"desc\"" }
      ]
    },
    {
      "id": "2",
      "name": "Chores to do at work",
      "listElements": [
        {
          "id": "1",
          "title": "Fill out TimeCenter.",
          "body": "Enter on timecenter"
        },
        {
          "id": "2",
          "title": "Attend the course form 10 o'clock.",
          "body": "Put 10 o'clock"
        },
        {
          "id": "3",
          "title": "Attend the course form 13 o'clock.",
          "body": "Put 13 o'clock"
        }
      ]
    }
  ],
  "default": {
    "lists": [
      {
        "id": "1",
        "name": "Chores to do at home",
        "listElements": [
          {
            "id": "1",
            "title": "Take out the trash.",
            "body": "Get the trash"
          },
          { "id": "2", "title": "Wash the dishes.", "body": "Get the dishes" },
          {
            "id": "3",
            "title": "Do the laundry.",
            "body": "Get the car and go to laundry"
          },
          { "id": "4", "title": "\"do there\"", "body": "\"desc\"" }
        ]
      },
      {
        "id": "2",
        "name": "Chores to do at work",
        "listElements": [
          {
            "id": "1",
            "title": "Fill out TimeCenter.",
            "body": "Enter on timecenter"
          },
          {
            "id": "2",
            "title": "Attend the course form 10 o'clock.",
            "body": "Put 10 o'clock"
          },
          {
            "id": "3",
            "title": "Attend the course form 13 o'clock.",
            "body": "Put 13 o'clock"
          }
        ]
      }
    ]
  }
}
